Session 3: Obtaining Text Data
…
    ...metadata extracted [0.088 secs]

    ...article texts extracted [0.10 secs]

    ...paragraphs extracted [0.15 secs]

    ...superfluous whitespace removed [0.18 secs]

Elapsed time: 0.18 secs

df <- lnt_convert(dat)
df

# A tibble: 119 × 11
      ID Source_File Newspaper Date       Length Section Author Edition Headline
   <int> <chr>       <chr>     <date>     <chr>  <chr>   <chr>  <chr>   <chr>   
 1     1 ./data/Lex… Daily Mi… 2018-05-23 108 w… NEWS; … BEN G… Editio… TUC bos…
 2     2 ./data/Lex… Daily Mi… 2018-05-23 108 w… NEWS; … BEN G… Editio… TUC bos…
 3     3 ./data/Lex… Financia… 2018-05-23 110 w… NEWS; … <NA>   Editio… Zuckerb…
 4     4 ./data/Lex… Financia… 2018-05-23 110 w… NEWS; … <NA>   Editio… Zuckerb…
 5     5 ./data/Lex… Financia… 2018-05-23 110 w… NEWS; … <NA>   Editio… Zuckerb…
 6     6 ./data/Lex… Financia… 2018-05-23 110 w… NEWS; … <NA>   Editio… Zuckerb…
 7     7 ./data/Lex… Financia… 2018-05-23 110 w… NEWS; … <NA>   Editio… Zuckerb…
 8     8 ./data/Lex… The Guar… 2018-05-23 536 w… BUSINE… Paul … <NA>    Austral…
 9     9 ./data/Lex… The Guar… 2018-05-22 828 w… WORLD … Patri… <NA>    Boris J…
10    10 ./data/Lex… The Guar… 2018-05-22 7676 … POLITI… Andre… <NA>    Boris J…
# ℹ 109 more rows
# ℹ 2 more variables: Graphic <lgl>, Article <chr>
…
This imports every page as one item of a character object. If you want a finer grained information about the visual context of words, you can use another command from the same package:

mueller2 <- pdf_data("./data/report.pdf")
mueller2[[1]]

# A tibble: 51 × 6
   width height     x     y space text      
   <int>  <int> <int> <int> <lgl> <chr>     
 1    21     16   241     6 TRUE  U.S.      
 2    56     16   265     6 TRUE  Department
 3     9     16   325     6 TRUE  of        
 4    32     16   338     6 FALSE Justice   
 5    42     16    97    20 TRUE  Attorney  
 6    27     16   142    20 TRUE  Work      
 7    37     16   173    20 TRUE  Product   
 8     6     16   213    20 TRUE  //        
 9    21     16   223    20 TRUE  May       
10    38     16   248    20 TRUE  Contain   
# ℹ 41 more rows
…
potus %>% 
  filter(str_detect(text, "cat")) %>% 
  select(created_at, text)

# A tibble: 35 × 2
   created_at          text                                                     
   <dttm>              <chr>                                                    
 1 2023-03-20 21:03:28 "Over the last two years, 10.5 million new small busines…
 2 2023-03-19 14:21:00 "It's time for Congress to ban assault weapons and high-…
 3 2023-03-11 19:00:38 "With the signing of the American Rescue Plan, we laid t…
 4 2023-03-05 00:00:00 "Small business applications are more than pieces of pap…
 5 2023-02-28 23:04:31 "An investment in an HBCU is an investment in the next g…
 6 2023-02-28 03:40:05 "We were honored to welcome educators, advocates, and co…
 7 2023-02-26 17:00:01 "Folks, you all know 12 years of education is not enough…
 8 2023-02-17 18:11:39 "I think every kid, in every zip code, in every state sh…
 9 2023-02-09 14:00:00 "Folks, you all know 12 years is not enough to win the e…
10 2023-02-07 01:00:02 "The past two years have been the strongest for small bu…
# ℹ 25 more rows
…
