Session 7: Unsupervised Machine Learning
…
Topics per document

Similary to above, we can also extract to topics per document:

bundestag18_dtm <- lda_model$theta %>% 
  as.data.frame() %>% 
  rownames_to_column("doc_id") %>% 
  as_tibble()
bundestag18_dtm

# A tibble: 51,798 × 11
   doc_id topic1 topic2 topic3 topic4 topic5 topic6 topic7 topic8 topic9 topic10
   <chr>   <dbl>  <dbl>  <dbl>  <dbl>  <dbl>  <dbl>  <dbl>  <dbl>  <dbl>   <dbl>
 1 2013-… 0.0853 0.0593 0.0621 0.343  0.0297 0.0195 0.0482 0.0834 0.235   0.0343
 2 2013-… 0.263  0.0421 0.0281 0.109  0.196  0.0491 0.0526 0.0386 0.116   0.105 
 3 2013-… 0.0980 0.0980 0.118  0.0980 0.0980 0.0980 0.0980 0.0980 0.0980  0.0980
 4 2013-… 0.1    0.0875 0.075  0.1    0.112  0.162  0.0625 0.075  0.162   0.0625
 5 2013-… 0.0909 0.0909 0.145  0.0909 0.0909 0.0909 0.0909 0.0909 0.0909  0.127 
 6 2013-… 0.245  0.0745 0.0266 0.0426 0.0904 0.0691 0.0745 0.0479 0.144   0.186 
 7 2013-… 0.0943 0.0943 0.113  0.0943 0.0943 0.0943 0.0943 0.0943 0.0943  0.132 
 8 2013-… 0.301  0.0725 0.0362 0.0761 0.101  0.127  0.0290 0.0362 0.109   0.112 
 9 2013-… 0.0639 0.0414 0.0789 0.0414 0.128  0.0677 0.0451 0.0301 0.0526  0.451 
10 2013-… 0.103  0.0841 0.112  0.0748 0.131  0.0654 0.0654 0.0654 0.0561  0.243 
# ℹ 51,788 more rows

We can tidy this and join the results back with the original metadata using the doc_id:

bundestag18_dtm_tidy <- bundestag18_dtm %>% 
  pivot_longer(-doc_id, names_to = "topic", values_to = "theta") %>% 
  # again this is to keep track of the order as it is otherwise order by alphabet
  mutate(topic = fct_inorder(topic)) %>% 
  left_join(bundestag18 %>% select(-text), by = "doc_id")
bundestag18_dtm_tidy

# A tibble: 517,980 × 13
   doc_id       topic    theta date       agenda      speechnumber speaker party
   <chr>        <fct>    <dbl> <date>     <chr>              <int> <chr>   <chr>
 1 2013-10-22-1 topic1  0.0853 2013-10-22 SITZUNGSBE…            1 Heinz … <NA> 
 2 2013-10-22-1 topic2  0.0593 2013-10-22 SITZUNGSBE…            1 Heinz … <NA> 
 3 2013-10-22-1 topic3  0.0621 2013-10-22 SITZUNGSBE…            1 Heinz … <NA> 
 4 2013-10-22-1 topic4  0.343  2013-10-22 SITZUNGSBE…            1 Heinz … <NA> 
 5 2013-10-22-1 topic5  0.0297 2013-10-22 SITZUNGSBE…            1 Heinz … <NA> 
 6 2013-10-22-1 topic6  0.0195 2013-10-22 SITZUNGSBE…            1 Heinz … <NA> 
 7 2013-10-22-1 topic7  0.0482 2013-10-22 SITZUNGSBE…            1 Heinz … <NA> 
 8 2013-10-22-1 topic8  0.0834 2013-10-22 SITZUNGSBE…            1 Heinz … <NA> 
 9 2013-10-22-1 topic9  0.235  2013-10-22 SITZUNGSBE…            1 Heinz … <NA> 
10 2013-10-22-1 topic10 0.0343 2013-10-22 SITZUNGSBE…            1 Heinz … <NA> 
# ℹ 517,970 more rows
# ℹ 5 more variables: party.facts.id <dbl>, chair <lgl>, terms <dbl>,
#   parliament <chr>, iso3country <chr>
…
